<?xml version="1.0" encoding="UTF-8" standalone="no"?>
<graphml xmlns="http://graphml.graphdrawing.org/xmlns" xmlns:java="http://www.yworks.com/xml/yfiles-common/1.0/java" xmlns:sys="http://www.yworks.com/xml/yfiles-common/markup/primitives/2.0" xmlns:x="http://www.yworks.com/xml/yfiles-common/markup/2.0" xmlns:xsi="http://www.w3.org/2001/XMLSchema-instance" xmlns:y="http://www.yworks.com/xml/graphml" xmlns:yed="http://www.yworks.com/xml/yed/3" xsi:schemaLocation="http://graphml.graphdrawing.org/xmlns http://www.yworks.com/xml/schema/graphml/1.1/ygraphml.xsd">
  <!--Created by yEd 3.16.1-->
  <key attr.name="Description" attr.type="string" for="graph" id="d0"/>
  <key for="port" id="d1" yfiles.type="portgraphics"/>
  <key for="port" id="d2" yfiles.type="portgeometry"/>
  <key for="port" id="d3" yfiles.type="portuserdata"/>
  <key attr.name="url" attr.type="string" for="node" id="d4"/>
  <key attr.name="description" attr.type="string" for="node" id="d5"/>
  <key for="node" id="d6" yfiles.type="nodegraphics"/>
  <key for="graphml" id="d7" yfiles.type="resources"/>
  <key attr.name="url" attr.type="string" for="edge" id="d8"/>
  <key attr.name="description" attr.type="string" for="edge" id="d9"/>
  <key for="edge" id="d10" yfiles.type="edgegraphics"/>
  <graph edgedefault="directed" id="G">
    <data key="d0"/>
    <node id="n0">
      <data key="d6">
        <y:SVGNode>
          <y:Geometry height="185.80438190037663" width="127.56192789240404" x="338.9319816871981" y="297.0978090498117"/>
          <y:Fill color="#CCCCFF" transparent="false"/>
          <y:BorderStyle color="#000000" type="line" width="1.0"/>
          <y:NodeLabel alignment="center" autoSizePolicy="content" fontFamily="Dialog" fontSize="12" fontStyle="plain" hasBackgroundColor="false" hasLineColor="false" hasText="false" height="4.0" horizontalTextPosition="center" iconTextGap="4" modelName="sandwich" modelPosition="s" textColor="#000000" verticalTextPosition="bottom" visible="true" width="4.0" x="61.78096394620201" y="189.80438190037665"/>
          <y:SVGNodeProperties usingVisualBounds="true"/>
          <y:SVGModel svgBoundsPolicy="0">
            <y:SVGContent refid="1"/>
          </y:SVGModel>
        </y:SVGNode>
      </data>
    </node>
    <node id="n1">
      <data key="d6">
        <y:SVGNode>
          <y:Geometry height="51.304636403620066" width="70.88062680980205" x="268.0513548773961" y="424.34768179818997"/>
          <y:Fill color="#CCCCFF" transparent="false"/>
          <y:BorderStyle color="#000000" type="line" width="1.0"/>
          <y:NodeLabel alignment="center" autoSizePolicy="content" fontFamily="Dialog" fontSize="12" fontStyle="plain" hasBackgroundColor="false" hasLineColor="false" hasText="false" height="4.0" horizontalTextPosition="center" iconTextGap="4" modelName="sandwich" modelPosition="s" textColor="#000000" verticalTextPosition="bottom" visible="true" width="4.0" x="33.44031340490102" y="55.304636403620066"/>
          <y:SVGNodeProperties usingVisualBounds="true"/>
          <y:SVGModel svgBoundsPolicy="0">
            <y:SVGContent refid="2"/>
          </y:SVGModel>
        </y:SVGNode>
      </data>
    </node>
    <node id="n2">
      <data key="d6">
        <y:SVGNode>
          <y:Geometry height="51.304636403620066" width="70.88062680980205" x="268.0513548773961" y="394.34768179818997"/>
          <y:Fill color="#CCCCFF" transparent="false"/>
          <y:BorderStyle color="#000000" type="line" width="1.0"/>
          <y:NodeLabel alignment="center" autoSizePolicy="content" fontFamily="Dialog" fontSize="12" fontStyle="plain" hasBackgroundColor="false" hasLineColor="false" hasText="false" height="4.0" horizontalTextPosition="center" iconTextGap="4" modelName="sandwich" modelPosition="s" textColor="#000000" verticalTextPosition="bottom" visible="true" width="4.0" x="33.44031340490102" y="55.304636403620066"/>
          <y:SVGNodeProperties usingVisualBounds="true"/>
          <y:SVGModel svgBoundsPolicy="0">
            <y:SVGContent refid="2"/>
          </y:SVGModel>
        </y:SVGNode>
      </data>
    </node>
    <node id="n3">
      <data key="d6">
        <y:SVGNode>
          <y:Geometry height="51.304636403620066" width="70.88062680980205" x="268.0513548773961" y="364.34768179818997"/>
          <y:Fill color="#CCCCFF" transparent="false"/>
          <y:BorderStyle color="#000000" type="line" width="1.0"/>
          <y:NodeLabel alignment="center" autoSizePolicy="content" fontFamily="Dialog" fontSize="12" fontStyle="plain" hasBackgroundColor="false" hasLineColor="false" hasText="false" height="4.0" horizontalTextPosition="center" iconTextGap="4" modelName="sandwich" modelPosition="s" textColor="#000000" verticalTextPosition="bottom" visible="true" width="4.0" x="33.44031340490102" y="55.304636403620066"/>
          <y:SVGNodeProperties usingVisualBounds="true"/>
          <y:SVGModel svgBoundsPolicy="0">
            <y:SVGContent refid="2"/>
          </y:SVGModel>
        </y:SVGNode>
      </data>
    </node>
    <node id="n4">
      <data key="d6">
        <y:SVGNode>
          <y:Geometry height="51.304636403620066" width="70.88062680980205" x="268.0513548773961" y="334.34768179818997"/>
          <y:Fill color="#CCCCFF" transparent="false"/>
          <y:BorderStyle color="#000000" type="line" width="1.0"/>
          <y:NodeLabel alignment="center" autoSizePolicy="content" fontFamily="Dialog" fontSize="12" fontStyle="plain" hasBackgroundColor="false" hasLineColor="false" hasText="false" height="4.0" horizontalTextPosition="center" iconTextGap="4" modelName="sandwich" modelPosition="s" textColor="#000000" verticalTextPosition="bottom" visible="true" width="4.0" x="33.44031340490102" y="55.304636403620066"/>
          <y:SVGNodeProperties usingVisualBounds="true"/>
          <y:SVGModel svgBoundsPolicy="0">
            <y:SVGContent refid="2"/>
          </y:SVGModel>
        </y:SVGNode>
      </data>
    </node>
    <node id="n5">
      <data key="d6">
        <y:SVGNode>
          <y:Geometry height="51.304636403620066" width="70.88062680980205" x="268.0513548773961" y="304.34768179818997"/>
          <y:Fill color="#CCCCFF" transparent="false"/>
          <y:BorderStyle color="#000000" type="line" width="1.0"/>
          <y:NodeLabel alignment="center" autoSizePolicy="content" fontFamily="Dialog" fontSize="12" fontStyle="plain" hasBackgroundColor="false" hasLineColor="false" hasText="false" height="4.0" horizontalTextPosition="center" iconTextGap="4" modelName="sandwich" modelPosition="s" textColor="#000000" verticalTextPosition="bottom" visible="true" width="4.0" x="33.44031340490102" y="55.304636403620066"/>
          <y:SVGNodeProperties usingVisualBounds="true"/>
          <y:SVGModel svgBoundsPolicy="0">
            <y:SVGContent refid="2"/>
          </y:SVGModel>
        </y:SVGNode>
      </data>
    </node>
    <node id="n6">
      <data key="d6">
        <y:SVGNode>
          <y:Geometry height="119.19100189208984" width="81.82925415039062" x="908.0853729248047" y="191.40449905395508"/>
          <y:Fill color="#CCCCFF" transparent="false"/>
          <y:BorderStyle color="#000000" type="line" width="1.0"/>
          <y:NodeLabel alignment="center" autoSizePolicy="content" fontFamily="Dialog" fontSize="12" fontStyle="plain" hasBackgroundColor="false" hasLineColor="false" hasText="false" height="4.0" horizontalTextPosition="center" iconTextGap="4" modelName="sandwich" modelPosition="s" textColor="#000000" verticalTextPosition="bottom" visible="true" width="4.0" x="38.91462707519531" y="123.19100189208984"/>
          <y:SVGNodeProperties usingVisualBounds="true"/>
          <y:SVGModel svgBoundsPolicy="0">
            <y:SVGContent refid="1"/>
          </y:SVGModel>
        </y:SVGNode>
      </data>
    </node>
    <node id="n7">
      <data key="d6">
        <y:SVGNode>
          <y:Geometry height="119.19100189208984" width="81.82925415039062" x="908.0853729248047" y="330.4044990539551"/>
          <y:Fill color="#CCCCFF" transparent="false"/>
          <y:BorderStyle color="#000000" type="line" width="1.0"/>
          <y:NodeLabel alignment="center" autoSizePolicy="content" fontFamily="Dialog" fontSize="12" fontStyle="plain" hasBackgroundColor="false" hasLineColor="false" hasText="false" height="4.0" horizontalTextPosition="center" iconTextGap="4" modelName="sandwich" modelPosition="s" textColor="#000000" verticalTextPosition="bottom" visible="true" width="4.0" x="38.91462707519531" y="123.19100189208984"/>
          <y:SVGNodeProperties usingVisualBounds="true"/>
          <y:SVGModel svgBoundsPolicy="0">
            <y:SVGContent refid="1"/>
          </y:SVGModel>
        </y:SVGNode>
      </data>
    </node>
    <node id="n8">
      <data key="d6">
        <y:SVGNode>
          <y:Geometry height="119.19100189208984" width="81.82925415039062" x="908.0853729248047" y="469.4044990539551"/>
          <y:Fill color="#CCCCFF" transparent="false"/>
          <y:BorderStyle color="#000000" type="line" width="1.0"/>
          <y:NodeLabel alignment="center" autoSizePolicy="content" fontFamily="Dialog" fontSize="12" fontStyle="plain" hasBackgroundColor="false" hasLineColor="false" hasText="false" height="4.0" horizontalTextPosition="center" iconTextGap="4" modelName="sandwich" modelPosition="s" textColor="#000000" verticalTextPosition="bottom" visible="true" width="4.0" x="38.91462707519531" y="123.19100189208984"/>
          <y:SVGNodeProperties usingVisualBounds="true"/>
          <y:SVGModel svgBoundsPolicy="0">
            <y:SVGContent refid="1"/>
          </y:SVGModel>
        </y:SVGNode>
      </data>
    </node>
    <node id="n9">
      <data key="d6">
        <y:SVGNode>
          <y:Geometry height="70.19098663330078" width="127.24769592285156" x="623.6657932907776" y="297.0978090498117"/>
          <y:Fill color="#CCCCFF" transparent="false"/>
          <y:BorderStyle color="#000000" type="line" width="1.0"/>
          <y:NodeLabel alignment="center" autoSizePolicy="content" fontFamily="Dialog" fontSize="12" fontStyle="plain" hasBackgroundColor="false" hasLineColor="false" hasText="false" height="4.0" horizontalTextPosition="center" iconTextGap="4" modelName="sandwich" modelPosition="s" textColor="#000000" verticalTextPosition="bottom" visible="true" width="4.0" x="61.62384796142578" y="74.19098663330078"/>
          <y:SVGNodeProperties usingVisualBounds="true"/>
          <y:SVGModel svgBoundsPolicy="0">
            <y:SVGContent refid="3"/>
          </y:SVGModel>
        </y:SVGNode>
      </data>
    </node>
    <node id="n10">
      <data key="d6">
        <y:SVGNode>
          <y:Geometry height="70.19098663330078" width="127.24769592285156" x="623.6657932907776" y="412.7112043168876"/>
          <y:Fill color="#CCCCFF" transparent="false"/>
          <y:BorderStyle color="#000000" type="line" width="1.0"/>
          <y:NodeLabel alignment="center" autoSizePolicy="content" fontFamily="Dialog" fontSize="12" fontStyle="plain" hasBackgroundColor="false" hasLineColor="false" hasText="false" height="4.0" horizontalTextPosition="center" iconTextGap="4" modelName="sandwich" modelPosition="s" textColor="#000000" verticalTextPosition="bottom" visible="true" width="4.0" x="61.62384796142578" y="74.19098663330078"/>
          <y:SVGNodeProperties usingVisualBounds="true"/>
          <y:SVGModel svgBoundsPolicy="0">
            <y:SVGContent refid="3"/>
          </y:SVGModel>
        </y:SVGNode>
      </data>
    </node>
    <edge id="e0" source="n6" target="n9">
      <data key="d9"/>
      <data key="d10">
        <y:PolyLineEdge>
          <y:Path sx="0.0" sy="0.0" tx="0.0" ty="0.0"/>
          <y:LineStyle color="#000000" type="line" width="1.0"/>
          <y:Arrows source="none" target="none"/>
          <y:BendStyle smoothed="false"/>
        </y:PolyLineEdge>
      </data>
    </edge>
    <edge id="e1" source="n7" target="n9">
      <data key="d9"/>
      <data key="d10">
        <y:PolyLineEdge>
          <y:Path sx="0.0" sy="0.0" tx="0.0" ty="0.0"/>
          <y:LineStyle color="#000000" type="line" width="1.0"/>
          <y:Arrows source="none" target="none"/>
          <y:BendStyle smoothed="false"/>
        </y:PolyLineEdge>
      </data>
    </edge>
    <edge id="e2" source="n8" target="n9">
      <data key="d9"/>
      <data key="d10">
        <y:PolyLineEdge>
          <y:Path sx="0.0" sy="0.0" tx="0.0" ty="0.0"/>
          <y:LineStyle color="#000000" type="line" width="1.0"/>
          <y:Arrows source="none" target="none"/>
          <y:BendStyle smoothed="false"/>
        </y:PolyLineEdge>
      </data>
    </edge>
    <edge id="e3" source="n6" target="n10">
      <data key="d9"/>
      <data key="d10">
        <y:PolyLineEdge>
          <y:Path sx="0.0" sy="0.0" tx="0.0" ty="0.0"/>
          <y:LineStyle color="#000000" type="line" width="1.0"/>
          <y:Arrows source="none" target="none"/>
          <y:BendStyle smoothed="false"/>
        </y:PolyLineEdge>
      </data>
    </edge>
    <edge id="e4" source="n7" target="n10">
      <data key="d9"/>
      <data key="d10">
        <y:PolyLineEdge>
          <y:Path sx="0.0" sy="0.0" tx="0.0" ty="0.0"/>
          <y:LineStyle color="#000000" type="line" width="1.0"/>
          <y:Arrows source="none" target="none"/>
          <y:BendStyle smoothed="false"/>
        </y:PolyLineEdge>
      </data>
    </edge>
    <edge id="e5" source="n8" target="n10">
      <data key="d9"/>
      <data key="d10">
        <y:PolyLineEdge>
          <y:Path sx="0.0" sy="0.0" tx="0.0" ty="0.0"/>
          <y:LineStyle color="#000000" type="line" width="1.0"/>
          <y:Arrows source="none" target="none"/>
          <y:BendStyle smoothed="false"/>
        </y:PolyLineEdge>
      </data>
    </edge>
    <edge id="e6" source="n9" target="n0">
      <data key="d9"/>
      <data key="d10">
        <y:PolyLineEdge>
          <y:Path sx="0.0" sy="0.0" tx="0.0" ty="0.0"/>
          <y:LineStyle color="#000000" type="line" width="1.0"/>
          <y:Arrows source="none" target="none"/>
          <y:BendStyle smoothed="false"/>
        </y:PolyLineEdge>
      </data>
    </edge>
    <edge id="e7" source="n10" target="n0">
      <data key="d9"/>
      <data key="d10">
        <y:PolyLineEdge>
          <y:Path sx="0.0" sy="0.0" tx="0.0" ty="0.0"/>
          <y:LineStyle color="#000000" type="line" width="1.0"/>
          <y:Arrows source="none" target="none"/>
          <y:BendStyle smoothed="false"/>
        </y:PolyLineEdge>
      </data>
    </edge>
  </graph>
  <data key="d7">
    <y:Resources>
      <y:Resource id="1">&lt;?xml version="1.0" encoding="UTF-8" standalone="no"?&gt;
&lt;!-- Created with Inkscape (http://www.inkscape.org/) --&gt;

&lt;svg
   xmlns:svg="http://www.w3.org/2000/svg"
   xmlns="http://www.w3.org/2000/svg"
   xmlns:xlink="http://www.w3.org/1999/xlink"
   version="1.0"
   width="128"
   height="128"
   id="svg2108"&gt;
  &lt;defs
     id="defs3"&gt;
    &lt;linearGradient
       id="linearGradient4386"&gt;
      &lt;stop
         id="stop4388"
         style="stop-color:#d2d2d2;stop-opacity:1"
         offset="0" /&gt;
      &lt;stop
         id="stop4390"
         style="stop-color:#dfdfdf;stop-opacity:1"
         offset="1" /&gt;
    &lt;/linearGradient&gt;
    &lt;linearGradient
       id="linearGradient4412"&gt;
      &lt;stop
         id="stop4414"
         style="stop-color:#ffffff;stop-opacity:1"
         offset="0" /&gt;
      &lt;stop
         id="stop4416"
         style="stop-color:#ffffff;stop-opacity:0"
         offset="1" /&gt;
    &lt;/linearGradient&gt;
    &lt;linearGradient
       id="linearGradient4420"&gt;
      &lt;stop
         id="stop4422"
         style="stop-color:#ffffff;stop-opacity:1"
         offset="0" /&gt;
      &lt;stop
         id="stop4424"
         style="stop-color:#ffffff;stop-opacity:0"
         offset="1" /&gt;
    &lt;/linearGradient&gt;
    &lt;linearGradient
       id="linearGradient4449"&gt;
      &lt;stop
         id="stop4451"
         style="stop-color:#ffffff;stop-opacity:1"
         offset="0" /&gt;
      &lt;stop
         id="stop4453"
         style="stop-color:#ffffff;stop-opacity:0"
         offset="1" /&gt;
    &lt;/linearGradient&gt;
    &lt;linearGradient
       id="linearGradient4509"&gt;
      &lt;stop
         id="stop4511"
         style="stop-color:#000000;stop-opacity:1"
         offset="0" /&gt;
      &lt;stop
         id="stop4513"
         style="stop-color:#000000;stop-opacity:0"
         offset="1" /&gt;
    &lt;/linearGradient&gt;
    &lt;linearGradient
       id="linearGradient5048"&gt;
      &lt;stop
         id="stop5050"
         style="stop-color:#000000;stop-opacity:0"
         offset="0" /&gt;
      &lt;stop
         id="stop5056"
         style="stop-color:#000000;stop-opacity:1"
         offset="0.5" /&gt;
      &lt;stop
         id="stop5052"
         style="stop-color:#000000;stop-opacity:0"
         offset="1" /&gt;
    &lt;/linearGradient&gt;
    &lt;linearGradient
       id="linearGradient5060"&gt;
      &lt;stop
         id="stop5062"
         style="stop-color:#000000;stop-opacity:1"
         offset="0" /&gt;
      &lt;stop
         id="stop5064"
         style="stop-color:#000000;stop-opacity:0"
         offset="1" /&gt;
    &lt;/linearGradient&gt;
    &lt;linearGradient
       x1="302.85715"
       y1="366.64789"
       x2="302.85715"
       y2="609.50507"
       id="linearGradient25151"
       xlink:href="#linearGradient5048"
       gradientUnits="userSpaceOnUse"
       gradientTransform="matrix(2.774389,0,0,1.969706,-1892.179,-872.8854)" /&gt;
    &lt;radialGradient
       cx="605.71429"
       cy="486.64789"
       r="117.14286"
       fx="605.71429"
       fy="486.64789"
       id="radialGradient25153"
       xlink:href="#linearGradient5060"
       gradientUnits="userSpaceOnUse"
       gradientTransform="matrix(2.774389,0,0,1.969706,-1891.633,-872.8854)" /&gt;
    &lt;radialGradient
       cx="605.71429"
       cy="486.64789"
       r="117.14286"
       fx="605.71429"
       fy="486.64789"
       id="radialGradient25155"
       xlink:href="#linearGradient5060"
       gradientUnits="userSpaceOnUse"
       gradientTransform="matrix(-2.774389,0,0,1.969706,112.7623,-872.8854)" /&gt;
    &lt;linearGradient
       x1="16.36447"
       y1="39.918777"
       x2="16.36447"
       y2="30.928421"
       id="linearGradient25284"
       xlink:href="#linearGradient4509"
       gradientUnits="userSpaceOnUse"
       gradientTransform="matrix(2.8081147,0,0,2.8081175,28.084322,0.8636252)" /&gt;
    &lt;linearGradient
       x1="16.36447"
       y1="39.918777"
       x2="16.36447"
       y2="30.928421"
       id="linearGradient25287"
       xlink:href="#linearGradient4509"
       gradientUnits="userSpaceOnUse"
       gradientTransform="matrix(2.8081147,0,0,2.8081175,22.410835,0.8636252)" /&gt;
    &lt;linearGradient
       x1="16.36447"
       y1="39.918777"
       x2="16.36447"
       y2="30.928421"
       id="linearGradient25290"
       xlink:href="#linearGradient4509"
       gradientUnits="userSpaceOnUse"
       gradientTransform="matrix(2.8081147,0,0,2.8081175,16.737631,0.8636252)" /&gt;
    &lt;linearGradient
       x1="16.36447"
       y1="39.918777"
       x2="16.36447"
       y2="30.928421"
       id="linearGradient25293"
       xlink:href="#linearGradient4509"
       gradientUnits="userSpaceOnUse"
       gradientTransform="matrix(2.8081147,0,0,2.8081175,11.06438,0.8636252)" /&gt;
    &lt;linearGradient
       x1="16.36447"
       y1="39.918777"
       x2="16.36447"
       y2="30.928421"
       id="linearGradient25296"
       xlink:href="#linearGradient4509"
       gradientUnits="userSpaceOnUse"
       gradientTransform="matrix(2.8081147,0,0,2.8081175,5.3911289,0.8636252)" /&gt;
    &lt;linearGradient
       x1="16.36447"
       y1="39.918777"
       x2="16.36447"
       y2="30.928421"
       id="linearGradient25299"
       xlink:href="#linearGradient4509"
       gradientUnits="userSpaceOnUse"
       gradientTransform="matrix(2.8081147,0,0,2.8081175,-0.2821563,0.8636252)" /&gt;
    &lt;linearGradient
       x1="16.36447"
       y1="39.918777"
       x2="16.36447"
       y2="30.928421"
       id="linearGradient25302"
       xlink:href="#linearGradient4449"
       gradientUnits="userSpaceOnUse"
       gradientTransform="matrix(2.8081147,0,0,2.8081175,30.92086,0.8636252)" /&gt;
    &lt;linearGradient
       x1="16.36447"
       y1="39.918777"
       x2="16.36447"
       y2="30.928421"
       id="linearGradient25305"
       xlink:href="#linearGradient4449"
       gradientUnits="userSpaceOnUse"
       gradientTransform="matrix(2.8081147,0,0,2.8081175,25.247609,0.8636252)" /&gt;
    &lt;linearGradient
       x1="16.36447"
       y1="39.918777"
       x2="16.36447"
       y2="30.928421"
       id="linearGradient25308"
       xlink:href="#linearGradient4449"
       gradientUnits="userSpaceOnUse"
       gradientTransform="matrix(2.8081147,0,0,2.8081175,19.574225,0.8636252)" /&gt;
    &lt;linearGradient
       x1="16.36447"
       y1="39.918777"
       x2="16.36447"
       y2="30.928421"
       id="linearGradient25311"
       xlink:href="#linearGradient4449"
       gradientUnits="userSpaceOnUse"
       gradientTransform="matrix(2.8081147,0,0,2.8081175,13.900977,0.8636252)" /&gt;
    &lt;linearGradient
       x1="16.36447"
       y1="39.918777"
       x2="16.36447"
       y2="30.928421"
       id="linearGradient25314"
       xlink:href="#linearGradient4449"
       gradientUnits="userSpaceOnUse"
       gradientTransform="matrix(2.8081147,0,0,2.8081175,8.2277282,0.8636252)" /&gt;
    &lt;linearGradient
       x1="16.36447"
       y1="39.918777"
       x2="16.36447"
       y2="30.928421"
       id="linearGradient25317"
       xlink:href="#linearGradient4449"
       gradientUnits="userSpaceOnUse"
       gradientTransform="matrix(2.8081147,0,0,2.8081175,2.5545053,0.8636252)" /&gt;
    &lt;linearGradient
       x1="27.324621"
       y1="26.887815"
       x2="22.311644"
       y2="26.7868"
       id="linearGradient25327"
       xlink:href="#linearGradient4420"
       gradientUnits="userSpaceOnUse"
       gradientTransform="matrix(2.7372324,0,0,2.2504624,-5.011313,14.556065)" /&gt;
    &lt;linearGradient
       x1="27.324621"
       y1="26.887815"
       x2="22.311644"
       y2="26.7868"
       id="linearGradient25329"
       xlink:href="#linearGradient4412"
       gradientUnits="userSpaceOnUse"
       gradientTransform="matrix(2.7372324,0,0,2.2504624,-5.011313,14.556065)" /&gt;
    &lt;linearGradient
       x1="24.349752"
       y1="34.463955"
       x2="23.233509"
       y2="10.018264"
       id="linearGradient25335"
       xlink:href="#linearGradient4386"
       gradientUnits="userSpaceOnUse"
       gradientTransform="matrix(2.8415131,0,0,2.83799,-5.3545917,0.4858861)" /&gt;
  &lt;/defs&gt;
  &lt;g
     id="layer1"
     style="display:inline" /&gt;
  &lt;g
     id="layer2"
     style="display:inline"&gt;
    &lt;g
       transform="matrix(0.04030136,0,0,0.05919351,98.269348,107.74796)"
       id="g6707"
       style="display:inline"&gt;
      &lt;rect
         width="1339.6335"
         height="478.35718"
         x="-1559.2523"
         y="-150.69685"
         id="rect6709"
         style="opacity:0.40206185;fill:url(#linearGradient25151);fill-opacity:1;fill-rule:nonzero;stroke:none;stroke-width:1;marker:none;visibility:visible;display:inline;overflow:visible" /&gt;
      &lt;path
         d="m -219.61876,-150.68038 c 0,0 0,478.33079 0,478.33079 142.874166,0.90045 345.40022,-107.16966 345.40014,-239.196175 0,-132.026537 -159.436816,-239.134595 -345.40014,-239.134615 z"
         id="path6711"
         style="opacity:0.40206185;fill:url(#radialGradient25153);fill-opacity:1;fill-rule:nonzero;stroke:none;stroke-width:1;marker:none;visibility:visible;display:inline;overflow:visible" /&gt;
      &lt;path
         d="m -1559.2523,-150.68038 c 0,0 0,478.33079 0,478.33079 -142.8742,0.90045 -345.4002,-107.16966 -345.4002,-239.196175 0,-132.026537 159.4368,-239.134595 345.4002,-239.134615 z"
         id="path6713"
         style="opacity:0.40206185;fill:url(#radialGradient25155);fill-opacity:1;fill-rule:nonzero;stroke:none;stroke-width:1;marker:none;visibility:visible;display:inline;overflow:visible" /&gt;
    &lt;/g&gt;
    &lt;path
       d="m 30.069752,22.03729 0,95.17786 62.405743,0 0,-95.75122 -11.481446,-12.040572 -40.016921,0 -10.907376,12.613932 z"
       id="path3626"
       style="fill:url(#linearGradient25335);fill-opacity:1;fill-rule:evenodd;stroke:#5e5e5e;stroke-width:2.83662605px;stroke-linecap:round;stroke-linejoin:round;stroke-opacity:1" /&gt;
    &lt;path
       d="m 41.556086,10.841671 -10.068019,14.183131 59.56912,0 -10.90702,-13.76598 -38.594081,-0.417151 z"
       id="path5791"
       style="fill:#ffffff;fill-opacity:0.65536726;fill-rule:evenodd;stroke:none" /&gt;
    &lt;rect
       width="45.386024"
       height="11.346502"
       x="39.997936"
       y="30.698046"
       id="rect4553"
       style="opacity:0.34857142;fill:#ffffff;fill-opacity:1;fill-rule:evenodd;stroke:#ffffff;stroke-width:2.83662605;stroke-linecap:butt;stroke-linejoin:miter;stroke-miterlimit:4;stroke-opacity:1;stroke-dasharray:none;stroke-dashoffset:0;marker:none;visibility:visible;display:inline;overflow:visible" /&gt;
    &lt;path
       d="m 32.906375,23.771924 0,90.606576 56.732536,0 0,-91.129846 -10.506025,-10.988653 -36.245787,0 -9.980724,11.511923 z"
       id="path4394"
       style="fill:none;stroke:#ffffff;stroke-width:2.83662724;stroke-linecap:butt;stroke-linejoin:miter;stroke-miterlimit:4;stroke-opacity:1;stroke-dasharray:none" /&gt;
    &lt;rect
       width="31.202894"
       height="11.346499"
       x="54.181065"
       y="67.574181"
       id="rect4408"
       style="opacity:0.52571429;fill:url(#linearGradient25327);fill-opacity:1;fill-rule:evenodd;stroke:url(#linearGradient25329);stroke-width:2.83662701;stroke-linecap:butt;stroke-linejoin:miter;stroke-miterlimit:4;stroke-opacity:1;stroke-dasharray:none;stroke-dashoffset:0;marker:none;visibility:visible;display:inline;overflow:visible" /&gt;
    &lt;rect
       width="31.202871"
       height="11.346502"
       x="52.762733"
       y="66.155869"
       id="rect4398"
       style="fill:#c8c8c8;fill-opacity:1;fill-rule:evenodd;stroke:#acacac;stroke-width:2.83662534;stroke-linecap:butt;stroke-linejoin:miter;stroke-miterlimit:4;stroke-opacity:1;stroke-dasharray:none;stroke-dashoffset:0;marker:none;visibility:visible;display:inline;overflow:visible" /&gt;
    &lt;rect
       width="45.386024"
       height="11.346502"
       x="39.997952"
       y="47.7178"
       id="rect4551"
       style="opacity:0.34857142;fill:#ffffff;fill-opacity:1;fill-rule:evenodd;stroke:#ffffff;stroke-width:2.83662558;stroke-linecap:butt;stroke-linejoin:miter;stroke-miterlimit:4;stroke-opacity:1;stroke-dasharray:none;stroke-dashoffset:0;marker:none;visibility:visible;display:inline;overflow:visible" /&gt;
    &lt;rect
       width="45.386032"
       height="11.346502"
       x="38.579624"
       y="46.299488"
       id="rect4430"
       style="fill:#c8c8c8;fill-opacity:1;fill-rule:evenodd;stroke:#acacac;stroke-width:2.83662653;stroke-linecap:butt;stroke-linejoin:miter;stroke-miterlimit:4;stroke-opacity:1;stroke-dasharray:none;stroke-dashoffset:0;marker:none;visibility:visible;display:inline;overflow:visible" /&gt;
    &lt;rect
       width="45.386032"
       height="11.346502"
       x="38.579647"
       y="29.279736"
       id="rect4436"
       style="fill:#c8c8c8;fill-opacity:1;fill-rule:evenodd;stroke:#acacac;stroke-width:2.83662605;stroke-linecap:butt;stroke-linejoin:miter;stroke-miterlimit:4;stroke-opacity:1;stroke-dasharray:none;stroke-dashoffset:0;marker:none;visibility:visible;display:inline;overflow:visible" /&gt;
    &lt;path
       d="m 68.185294,26.231213 a 2.171828,2.171828 0 1 1 -4.343656,0 2.171828,2.171828 0 1 1 4.343656,0 z"
       transform="matrix(1.9593699,0,0,1.9593562,-86.509754,21.850696)"
       id="path4396"
       style="fill:#d40000;fill-opacity:1;fill-rule:evenodd;stroke:#979797;stroke-width:1.44772947;stroke-linecap:butt;stroke-linejoin:miter;stroke-miterlimit:4;stroke-opacity:1;stroke-dasharray:none;stroke-dashoffset:0;marker:none;visibility:visible;display:inline;overflow:visible" /&gt;
    &lt;path
       d="m 16.667518,25.574614 a 0.5050765,0.5050765 0 1 1 -1.010153,0 0.5050765,0.5050765 0 1 1 1.010153,0 z"
       transform="matrix(2.5342538,0,0,2.5342343,0.4673221,7.5389146)"
       id="path4445"
       style="fill:#f44800;fill-opacity:1;fill-rule:evenodd;stroke:none;stroke-width:1;marker:none;visibility:visible;display:inline;overflow:visible" /&gt;
    &lt;rect
       width="2.8366244"
       height="28.36627"
       x="48.507816"
       y="84.593979"
       id="rect4457"
       style="fill:url(#linearGradient25317);fill-opacity:1;fill-rule:evenodd;stroke:none;stroke-width:1;marker:none;visibility:visible;display:inline;overflow:visible" /&gt;
    &lt;rect
       width="2.8366244"
       height="28.36627"
       x="54.181038"
       y="84.593979"
       id="rect4461"
       style="fill:url(#linearGradient25314);fill-opacity:1;fill-rule:evenodd;stroke:none;stroke-width:1;marker:none;visibility:visible;display:inline;overflow:visible" /&gt;
    &lt;rect
       width="2.8366244"
       height="28.36627"
       x="59.854286"
       y="84.593979"
       id="rect4465"
       style="fill:url(#linearGradient25311);fill-opacity:1;fill-rule:evenodd;stroke:none;stroke-width:1;marker:none;visibility:visible;display:inline;overflow:visible" /&gt;
    &lt;rect
       width="2.8366244"
       height="28.36627"
       x="65.527534"
       y="84.593979"
       id="rect4469"
       style="fill:url(#linearGradient25308);fill-opacity:1;fill-rule:evenodd;stroke:none;stroke-width:1;marker:none;visibility:visible;display:inline;overflow:visible" /&gt;
    &lt;rect
       width="2.8366244"
       height="28.36627"
       x="71.200821"
       y="84.593979"
       id="rect4473"
       style="fill:url(#linearGradient25305);fill-opacity:1;fill-rule:evenodd;stroke:none;stroke-width:1;marker:none;visibility:visible;display:inline;overflow:visible" /&gt;
    &lt;rect
       width="2.8366244"
       height="28.36627"
       x="76.874069"
       y="84.593979"
       id="rect4477"
       style="opacity:0.54285709;fill:url(#linearGradient25302);fill-opacity:1;fill-rule:evenodd;stroke:none;stroke-width:1;marker:none;visibility:visible;display:inline;overflow:visible" /&gt;
    &lt;rect
       width="2.8366244"
       height="28.36627"
       x="45.671154"
       y="84.593979"
       id="rect4481"
       style="opacity:0.16000001;fill:url(#linearGradient25299);fill-opacity:1;fill-rule:evenodd;stroke:none;stroke-width:1;marker:none;visibility:visible;display:inline;overflow:visible" /&gt;
    &lt;rect
       width="2.8366244"
       height="28.36627"
       x="51.34444"
       y="84.593979"
       id="rect4483"
       style="opacity:0.29142851;fill:url(#linearGradient25296);fill-opacity:1;fill-rule:evenodd;stroke:none;stroke-width:1;marker:none;visibility:visible;display:inline;overflow:visible" /&gt;
    &lt;rect
       width="2.8366244"
       height="28.36627"
       x="57.017693"
       y="84.593979"
       id="rect4485"
       style="opacity:0.29142851;fill:url(#linearGradient25293);fill-opacity:1;fill-rule:evenodd;stroke:none;stroke-width:1;marker:none;visibility:visible;display:inline;overflow:visible" /&gt;
    &lt;rect
       width="2.8366244"
       height="28.36627"
       x="62.690945"
       y="84.593979"
       id="rect4487"
       style="opacity:0.29142851;fill:url(#linearGradient25290);fill-opacity:1;fill-rule:evenodd;stroke:none;stroke-width:1;marker:none;visibility:visible;display:inline;overflow:visible" /&gt;
    &lt;rect
       width="2.8366244"
       height="28.36627"
       x="68.364159"
       y="84.593979"
       id="rect4489"
       style="opacity:0.29142851;fill:url(#linearGradient25287);fill-opacity:1;fill-rule:evenodd;stroke:none;stroke-width:1;marker:none;visibility:visible;display:inline;overflow:visible" /&gt;
    &lt;rect
       width="2.8366244"
       height="28.36627"
       x="74.037407"
       y="84.593979"
       id="rect4491"
       style="opacity:0.22857145;fill:url(#linearGradient25284);fill-opacity:1;fill-rule:evenodd;stroke:none;stroke-width:1;marker:none;visibility:visible;display:inline;overflow:visible" /&gt;
  &lt;/g&gt;
&lt;/svg&gt;
</y:Resource>
      <y:Resource id="2">&lt;?xml version="1.0" encoding="UTF-8" standalone="no"?&gt;
&lt;!-- Created with Inkscape (http://www.inkscape.org/) --&gt;

&lt;svg
   xmlns:svg="http://www.w3.org/2000/svg"
   xmlns="http://www.w3.org/2000/svg"
   xmlns:xlink="http://www.w3.org/1999/xlink"
   version="1.0"
   width="128"
   height="128"
   id="svg2913"&gt;
  &lt;defs
     id="defs3"&gt;
    &lt;radialGradient
       cx="605.71429"
       cy="486.64789"
       r="117.14286"
       fx="605.71429"
       fy="486.64789"
       id="radialGradient6719"
       xlink:href="#linearGradient5060"
       gradientUnits="userSpaceOnUse"
       gradientTransform="matrix(-2.774389,0,0,1.969706,112.7623,-872.8854)" /&gt;
    &lt;linearGradient
       id="linearGradient5060"&gt;
      &lt;stop
         id="stop5062"
         style="stop-color:#000000;stop-opacity:1"
         offset="0" /&gt;
      &lt;stop
         id="stop5064"
         style="stop-color:#000000;stop-opacity:0"
         offset="1" /&gt;
    &lt;/linearGradient&gt;
    &lt;radialGradient
       cx="605.71429"
       cy="486.64789"
       r="117.14286"
       fx="605.71429"
       fy="486.64789"
       id="radialGradient6717"
       xlink:href="#linearGradient5060"
       gradientUnits="userSpaceOnUse"
       gradientTransform="matrix(2.774389,0,0,1.969706,-1891.633,-872.8854)" /&gt;
    &lt;linearGradient
       id="linearGradient5048"&gt;
      &lt;stop
         id="stop5050"
         style="stop-color:#000000;stop-opacity:0"
         offset="0" /&gt;
      &lt;stop
         id="stop5056"
         style="stop-color:#000000;stop-opacity:1"
         offset="0.5" /&gt;
      &lt;stop
         id="stop5052"
         style="stop-color:#000000;stop-opacity:0"
         offset="1" /&gt;
    &lt;/linearGradient&gt;
    &lt;linearGradient
       x1="302.85715"
       y1="366.64789"
       x2="302.85715"
       y2="609.50507"
       id="linearGradient6715"
       xlink:href="#linearGradient5048"
       gradientUnits="userSpaceOnUse"
       gradientTransform="matrix(2.774389,0,0,1.969706,-1892.179,-872.8854)" /&gt;
    &lt;linearGradient
       id="linearGradient2555"&gt;
      &lt;stop
         id="stop2557"
         style="stop-color:#ffffff;stop-opacity:1"
         offset="0" /&gt;
      &lt;stop
         id="stop2561"
         style="stop-color:#e6e6e6;stop-opacity:1"
         offset="0.5" /&gt;
      &lt;stop
         id="stop2563"
         style="stop-color:#ffffff;stop-opacity:1"
         offset="0.75" /&gt;
      &lt;stop
         id="stop2565"
         style="stop-color:#e1e1e1;stop-opacity:1"
         offset="0.84166664" /&gt;
      &lt;stop
         id="stop2559"
         style="stop-color:#ffffff;stop-opacity:1"
         offset="1" /&gt;
    &lt;/linearGradient&gt;
    &lt;linearGradient
       id="linearGradient4274"&gt;
      &lt;stop
         id="stop4276"
         style="stop-color:#ffffff;stop-opacity:0.25490198"
         offset="0" /&gt;
      &lt;stop
         id="stop4278"
         style="stop-color:#ffffff;stop-opacity:1"
         offset="1" /&gt;
    &lt;/linearGradient&gt;
    &lt;linearGradient
       id="linearGradient4254"&gt;
      &lt;stop
         id="stop4256"
         style="stop-color:#ffffff;stop-opacity:1"
         offset="0" /&gt;
      &lt;stop
         id="stop4258"
         style="stop-color:#ffffff;stop-opacity:0"
         offset="1" /&gt;
    &lt;/linearGradient&gt;
    &lt;linearGradient
       id="linearGradient4244"&gt;
      &lt;stop
         id="stop4246"
         style="stop-color:#e4e4e4;stop-opacity:1"
         offset="0" /&gt;
      &lt;stop
         id="stop4248"
         style="stop-color:#d3d3d3;stop-opacity:1"
         offset="1" /&gt;
    &lt;/linearGradient&gt;
    &lt;linearGradient
       id="linearGradient4236"&gt;
      &lt;stop
         id="stop4238"
         style="stop-color:#eeeeee;stop-opacity:1"
         offset="0" /&gt;
      &lt;stop
         id="stop4240"
         style="stop-color:#eeeeee;stop-opacity:0"
         offset="1" /&gt;
    &lt;/linearGradient&gt;
    &lt;linearGradient
       id="linearGradient4228"&gt;
      &lt;stop
         id="stop4230"
         style="stop-color:#bbbbbb;stop-opacity:1"
         offset="0" /&gt;
      &lt;stop
         id="stop4232"
         style="stop-color:#9f9f9f;stop-opacity:1"
         offset="1" /&gt;
    &lt;/linearGradient&gt;
    &lt;linearGradient
       id="linearGradient4184"&gt;
      &lt;stop
         id="stop4186"
         style="stop-color:#838383;stop-opacity:1"
         offset="0" /&gt;
      &lt;stop
         id="stop4188"
         style="stop-color:#bbbbbb;stop-opacity:0"
         offset="1" /&gt;
    &lt;/linearGradient&gt;
    &lt;linearGradient
       x1="7.0625"
       y1="35.28125"
       x2="24.6875"
       y2="35.28125"
       id="linearGradient4209"
       xlink:href="#linearGradient4184"
       gradientUnits="userSpaceOnUse"
       gradientTransform="translate(0.795493,-1.325821)" /&gt;
    &lt;linearGradient
       x1="7.6046205"
       y1="28.481176"
       x2="36.183067"
       y2="40.943935"
       id="linearGradient4234"
       xlink:href="#linearGradient4228"
       gradientUnits="userSpaceOnUse" /&gt;
    &lt;linearGradient
       x1="12.277412"
       y1="37.205811"
       x2="12.221823"
       y2="33.758667"
       id="linearGradient4242"
       xlink:href="#linearGradient4236"
       gradientUnits="userSpaceOnUse" /&gt;
    &lt;radialGradient
       cx="15.571491"
       cy="2.958519"
       r="20.935818"
       fx="15.571491"
       fy="2.958519"
       id="radialGradient4250"
       xlink:href="#linearGradient4244"
       gradientUnits="userSpaceOnUse"
       gradientTransform="matrix(1.286242,0.781698,-0.710782,1.169552,-2.354348,-4.876862)" /&gt;
    &lt;linearGradient
       x1="12.378357"
       y1="4.433136"
       x2="44.0961"
       y2="47.620636"
       id="linearGradient4260"
       xlink:href="#linearGradient4254"
       gradientUnits="userSpaceOnUse" /&gt;
    &lt;linearGradient
       x1="23.688078"
       y1="11.318835"
       x2="23.688078"
       y2="26.357183"
       id="linearGradient4272"
       xlink:href="#linearGradient4274"
       gradientUnits="userSpaceOnUse" /&gt;
    &lt;linearGradient
       x1="33.431175"
       y1="31.964777"
       x2="21.747974"
       y2="11.780679"
       id="linearGradient2553"
       xlink:href="#linearGradient2555"
       gradientUnits="userSpaceOnUse" /&gt;
  &lt;/defs&gt;
  &lt;g
     id="layer2"&gt;
    &lt;g
       transform="matrix(2.6063849,0,0,2.6063849,0.6475626,-6.18466)"
       id="g2452"&gt;
      &lt;g
         transform="matrix(0.0245274,0,0,0.02086758,45.69054,36.1536)"
         id="g6707"&gt;
        &lt;rect
           width="1339.6335"
           height="478.35718"
           x="-1559.2523"
           y="-150.69685"
           id="rect6709"
           style="opacity:0.40206185;fill:url(#linearGradient6715);fill-opacity:1;fill-rule:nonzero;stroke:none;stroke-width:1;marker:none;visibility:visible;display:inline;overflow:visible" /&gt;
        &lt;path
           d="m -219.61876,-150.68038 c 0,0 0,478.33079 0,478.33079 142.874166,0.90045 345.40022,-107.16966 345.40014,-239.196175 0,-132.026537 -159.436816,-239.134595 -345.40014,-239.134615 z"
           id="path6711"
           style="opacity:0.40206185;fill:url(#radialGradient6717);fill-opacity:1;fill-rule:nonzero;stroke:none;stroke-width:1;marker:none;visibility:visible;display:inline;overflow:visible" /&gt;
        &lt;path
           d="m -1559.2523,-150.68038 c 0,0 0,478.33079 0,478.33079 -142.8742,0.90045 -345.4002,-107.16966 -345.4002,-239.196175 0,-132.026537 159.4368,-239.134595 345.4002,-239.134615 z"
           id="path6713"
           style="opacity:0.40206185;fill:url(#radialGradient6719);fill-opacity:1;fill-rule:nonzero;stroke:none;stroke-width:1;marker:none;visibility:visible;display:inline;overflow:visible" /&gt;
      &lt;/g&gt;
      &lt;path
         d="m 11.28569,7.9626278 c -0.625,0 -1.031249,0.2901802 -1.281248,0.843753 -10e-7,0 -6.4687505,17.1035572 -6.4687505,17.1035572 0,0 -0.25,0.671559 -0.25,1.78125 0,0 0,9.649968 0,9.649968 0,1.082613 0.6577855,1.625002 1.65625,1.625 l 38.5624985,0 c 0.984853,0 1.59375,-0.71818 1.59375,-1.84375 l 0,-9.649968 c 0,0 0.105963,-0.770423 -0.09375,-1.3125 L 38.28569,8.9626314 C 38.101165,8.4507246 37.648785,7.9745331 37.16069,7.9626278 l -25.875,0 z"
         id="path4196"
         style="fill:none;stroke:#535353;stroke-width:2;stroke-linecap:round;stroke-linejoin:round;stroke-miterlimit:4;stroke-opacity:1;stroke-dasharray:none" /&gt;
      &lt;path
         d="m 3.2735915,26.996812 0.7646021,-0.692215 37.6096894,0.0625 3.462407,0.317298 0,10.438532 c 0,1.125569 -0.607018,1.843331 -1.591871,1.843331 l -38.5829876,0 c -0.9984647,0 -1.6618399,-0.542051 -1.6618399,-1.624664 l 0,-10.344782 z"
         id="path4170"
         style="fill:url(#linearGradient4234);fill-opacity:1;fill-rule:evenodd;stroke:none" /&gt;
      &lt;path
         d="m 3.5490842,25.914404 c -0.7142857,1.464286 -6.156e-4,2.392857 1.0357143,2.392857 0,0 38.9999985,0 38.9999985,0 1.119047,-0.02381 1.845238,-1.011905 1.428571,-2.142858 L 38.299082,8.9537044 C 38.114558,8.4417976 37.64432,7.9656058 37.156225,7.9537008 l -25.857142,0 c -0.625,0 -1.035714,0.3035732 -1.285713,0.857146 0,0 -6.4642858,17.1035572 -6.4642858,17.1035572 z"
         id="path3093"
         style="fill:url(#radialGradient4250);fill-opacity:1;fill-rule:evenodd;stroke:none" /&gt;
      &lt;rect
         width="17.625"
         height="5.5625"
         x="7.857996"
         y="31.174183"
         id="rect4174"
         style="fill:url(#linearGradient4209);fill-opacity:1;fill-rule:evenodd;stroke:none;stroke-width:2.40899992;marker:none;visibility:visible;display:inline;overflow:visible" /&gt;
      &lt;path
         d="m 7.8579947,36.73668 c 0,0 0,-4.011485 0,-4.011485 1.8355274,3.179226 8.2964903,4.011485 12.9374973,4.011485 0,0 -12.9374973,0 -12.9374973,0 z"
         id="path4194"
         style="opacity:0.81142853;fill:url(#linearGradient4242);fill-opacity:1;fill-rule:evenodd;stroke:none" /&gt;
      &lt;path
         d="m 44.796162,25.628688 c 0.06352,1.249974 -0.414003,2.31584 -1.322116,2.34375 0,0 -38.1187164,-1e-6 -38.1187163,0 -1.2892319,0 -1.867736,-0.324947 -2.0840507,-0.868056 0.091761,0.944332 0.8258174,1.649306 2.0840507,1.649306 -1e-7,-1e-6 38.1187163,0 38.1187163,0 1.076007,-0.03307 1.752805,-1.424024 1.352164,-2.994791 l -0.03005,-0.130209 z"
         id="path4201"
         style="fill:#ffffff;fill-opacity:1;fill-rule:evenodd;stroke:none" /&gt;
      &lt;path
         d="m 10.96875,10.15625 c -0.04608,0.200321 -0.1875,0.386797 -0.1875,0.59375 0,0.948605 0.59098,1.789474 1.34375,2.59375 0.240268,-0.154075 0.365117,-0.354408 0.625,-0.5 -0.940309,-0.816004 -1.553396,-1.716582 -1.78125,-2.6875 z m 26.65625,0 c -0.228727,0.969616 -0.842012,1.872426 -1.78125,2.6875 0.274144,0.153582 0.403988,0.36824 0.65625,0.53125 0.757262,-0.806656 1.3125,-1.673044 1.3125,-2.625 0,-0.206953 -0.141594,-0.393429 -0.1875,-0.59375 z m 2.1875,8.4375 c -0.613791,4.040111 -7.298613,7.25 -15.53125,7.25 -8.212254,1e-6 -14.8601499,-3.192786 -15.5,-7.21875 -0.032357,0.197132 -0.125,0.391882 -0.125,0.59375 3e-7,4.317947 6.989104,7.843751 15.625,7.84375 8.635896,0 15.656249,-3.525802 15.65625,-7.84375 0,-0.212924 -0.08905,-0.417356 -0.125,-0.625 z"
         id="path4211"
         style="opacity:0.69142857;fill:url(#linearGradient4272);fill-opacity:1;fill-rule:evenodd;stroke:none;stroke-width:2;marker:none;visibility:visible;display:inline;overflow:visible" /&gt;
      &lt;path
         d="m 8.5736699,25.593554 c 0,0.561379 -0.6133786,1.016466 -1.3700194,1.016466 -0.7566409,0 -1.3700195,-0.455087 -1.3700195,-1.016466 0,-0.561379 0.6133786,-1.016466 1.3700195,-1.016466 0.7566408,0 1.3700194,0.455087 1.3700194,1.016466 z"
         transform="translate(0.08838843,0.176776)"
         id="path4224"
         style="fill:#ffffff;fill-opacity:0.45762706;fill-rule:evenodd;stroke:none;stroke-width:2;marker:none;visibility:visible;display:inline;overflow:visible" /&gt;
      &lt;path
         d="m 8.5736699,25.593554 c 0,0.561379 -0.6133786,1.016466 -1.3700194,1.016466 -0.7566409,0 -1.3700195,-0.455087 -1.3700195,-1.016466 0,-0.561379 0.6133786,-1.016466 1.3700195,-1.016466 0.7566408,0 1.3700194,0.455087 1.3700194,1.016466 z"
         transform="translate(33.96705,0.08838804)"
         id="path4226"
         style="fill:#ffffff;fill-opacity:0.45762706;fill-rule:evenodd;stroke:none;stroke-width:2;marker:none;visibility:visible;display:inline;overflow:visible" /&gt;
      &lt;path
         d="m 11.642515,8.4157227 c -0.601692,0 -0.992791,0.2793586 -1.233466,0.8122873 -10e-7,0 -6.4150149,16.590722 -6.4150149,16.590722 0,0 -0.2406768,0.646515 -0.2406768,1.714823 0,0 0,9.290096 0,9.290096 0,1.35474 0.4440561,1.626899 1.5944841,1.626899 l 37.6869046,0 c 1.323126,0 1.534316,-0.316397 1.534316,-1.837492 l 0,-9.290096 c 0,0 0.10201,-0.741691 -0.09025,-1.263553 L 37.885616,9.2534336 C 37.707973,8.7606171 37.334964,8.427184 36.865071,8.4157227 l -25.222556,0 z"
         id="path4252"
         style="fill:none;stroke:url(#linearGradient4260);stroke-width:1.00000024;stroke-linecap:round;stroke-linejoin:round;stroke-miterlimit:4;stroke-opacity:1;stroke-dasharray:none" /&gt;
      &lt;path
         d="m 40.5,31.429166 0,5.020935"
         id="path4282"
         style="fill:none;stroke:#ffffff;stroke-width:1.00000048px;stroke-linecap:square;stroke-linejoin:miter;stroke-opacity:0.42372885" /&gt;
      &lt;path
         d="m 38.5,31.488943 0,5.020935"
         id="path4284"
         style="fill:none;stroke:#ffffff;stroke-width:1.00000048px;stroke-linecap:square;stroke-linejoin:miter;stroke-opacity:0.42372885" /&gt;
      &lt;path
         d="m 36.5,31.488943 0,5.020935"
         id="path4286"
         style="fill:none;stroke:#ffffff;stroke-width:1.00000048px;stroke-linecap:square;stroke-linejoin:miter;stroke-opacity:0.42372885" /&gt;
      &lt;path
         d="m 34.5,31.488943 0,5.020935"
         id="path4288"
         style="fill:none;stroke:#ffffff;stroke-width:1.00000048px;stroke-linecap:square;stroke-linejoin:miter;stroke-opacity:0.42372885" /&gt;
      &lt;path
         d="m 32.5,31.488943 0,5.020935"
         id="path4290"
         style="fill:none;stroke:#ffffff;stroke-width:1.00000048px;stroke-linecap:square;stroke-linejoin:miter;stroke-opacity:0.42372885" /&gt;
      &lt;path
         d="m 30.5,31.488943 0,5.020935"
         id="path4292"
         style="fill:none;stroke:#ffffff;stroke-width:1.00000048px;stroke-linecap:square;stroke-linejoin:miter;stroke-opacity:0.42372885" /&gt;
      &lt;path
         d="M 39.5,31.479065 39.5,36.5"
         id="path4294"
         style="opacity:0.09714284;fill:none;stroke:#000000;stroke-width:1.00000048px;stroke-linecap:square;stroke-linejoin:miter;stroke-opacity:1" /&gt;
      &lt;path
         d="m 37.5,31.538842 0,5.020935"
         id="path4296"
         style="opacity:0.09714284;fill:none;stroke:#000000;stroke-width:1.00000048px;stroke-linecap:square;stroke-linejoin:miter;stroke-opacity:1" /&gt;
      &lt;path
         d="m 35.5,31.538842 0,5.020935"
         id="path4298"
         style="opacity:0.09714284;fill:none;stroke:#000000;stroke-width:1.00000048px;stroke-linecap:square;stroke-linejoin:miter;stroke-opacity:1" /&gt;
      &lt;path
         d="m 33.5,31.538842 0,5.020935"
         id="path4300"
         style="opacity:0.09714284;fill:none;stroke:#000000;stroke-width:1.00000048px;stroke-linecap:square;stroke-linejoin:miter;stroke-opacity:1" /&gt;
      &lt;path
         d="m 31.5,31.538842 0,5.020935"
         id="path4302"
         style="opacity:0.09714284;fill:none;stroke:#000000;stroke-width:1.00000048px;stroke-linecap:square;stroke-linejoin:miter;stroke-opacity:1" /&gt;
      &lt;path
         d="m 7.875,31.1875 0,5.53125 12.5625,0 L 8.21875,36.375 7.875,31.1875 z"
         id="path4572"
         style="opacity:0.43999999;fill:#ffffff;fill-opacity:1;fill-rule:evenodd;stroke:none" /&gt;
      &lt;path
         d="m 39.875,19.5625 c 0,3.693404 -6.659764,6.6875 -14.875,6.6875 -8.215236,0 -14.875,-2.994096 -14.875,-6.6875 0,-3.693404 6.659764,-6.6875 14.875,-6.6875 8.215236,0 14.875,2.994096 14.875,6.6875 z"
         transform="matrix(1.037815,0,0,1.060747,-1.632878,-2.094626)"
         id="path2545"
         style="opacity:0.20571427;fill:url(#linearGradient2553);fill-opacity:1;fill-rule:evenodd;stroke:none;stroke-width:0.93365198;marker:none;visibility:visible;display:inline;overflow:visible" /&gt;
    &lt;/g&gt;
  &lt;/g&gt;
&lt;/svg&gt;
</y:Resource>
      <y:Resource id="3">&lt;?xml version="1.0" encoding="UTF-8" standalone="no"?&gt;
&lt;!-- Created with Inkscape (http://www.inkscape.org/) --&gt;

&lt;svg
   xmlns:svg="http://www.w3.org/2000/svg"
   xmlns="http://www.w3.org/2000/svg"
   xmlns:xlink="http://www.w3.org/1999/xlink"
   version="1.0"
   width="128"
   height="128"
   id="svg2108"&gt;
  &lt;defs
     id="defs3"&gt;
    &lt;linearGradient
       id="linearGradient5048"&gt;
      &lt;stop
         id="stop5050"
         style="stop-color:#000000;stop-opacity:0"
         offset="0" /&gt;
      &lt;stop
         id="stop5056"
         style="stop-color:#000000;stop-opacity:1"
         offset="0.5" /&gt;
      &lt;stop
         id="stop5052"
         style="stop-color:#000000;stop-opacity:0"
         offset="1" /&gt;
    &lt;/linearGradient&gt;
    &lt;linearGradient
       id="linearGradient5060"&gt;
      &lt;stop
         id="stop5062"
         style="stop-color:#000000;stop-opacity:1"
         offset="0" /&gt;
      &lt;stop
         id="stop5064"
         style="stop-color:#000000;stop-opacity:0"
         offset="1" /&gt;
    &lt;/linearGradient&gt;
    &lt;linearGradient
       id="linearGradient4254"&gt;
      &lt;stop
         id="stop4256"
         style="stop-color:#616161;stop-opacity:1"
         offset="0" /&gt;
      &lt;stop
         id="stop4258"
         style="stop-color:#a0a0a0;stop-opacity:1"
         offset="1" /&gt;
    &lt;/linearGradient&gt;
    &lt;linearGradient
       id="linearGradient4228"&gt;
      &lt;stop
         id="stop4230"
         style="stop-color:#bbbbbb;stop-opacity:1"
         offset="0" /&gt;
      &lt;stop
         id="stop4232"
         style="stop-color:#9f9f9f;stop-opacity:1"
         offset="1" /&gt;
    &lt;/linearGradient&gt;
    &lt;linearGradient
       id="linearGradient4244"&gt;
      &lt;stop
         id="stop4246"
         style="stop-color:#e4e4e4;stop-opacity:1"
         offset="0" /&gt;
      &lt;stop
         id="stop4248"
         style="stop-color:#d3d3d3;stop-opacity:1"
         offset="1" /&gt;
    &lt;/linearGradient&gt;
    &lt;linearGradient
       x1="302.85715"
       y1="366.64789"
       x2="302.85715"
       y2="609.50507"
       id="linearGradient6715"
       xlink:href="#linearGradient5048"
       gradientUnits="userSpaceOnUse"
       gradientTransform="matrix(2.774389,0,0,1.969706,-1892.179,-872.8854)" /&gt;
    &lt;radialGradient
       cx="605.71429"
       cy="486.64789"
       r="117.14286"
       fx="605.71429"
       fy="486.64789"
       id="radialGradient6717"
       xlink:href="#linearGradient5060"
       gradientUnits="userSpaceOnUse"
       gradientTransform="matrix(2.774389,0,0,1.969706,-1891.633,-872.8854)" /&gt;
    &lt;radialGradient
       cx="605.71429"
       cy="486.64789"
       r="117.14286"
       fx="605.71429"
       fy="486.64789"
       id="radialGradient6719"
       xlink:href="#linearGradient5060"
       gradientUnits="userSpaceOnUse"
       gradientTransform="matrix(-2.774389,0,0,1.969706,112.7623,-872.8854)" /&gt;
    &lt;linearGradient
       x1="12.378357"
       y1="4.433136"
       x2="44.0961"
       y2="47.620636"
       id="linearGradient18985"
       xlink:href="#linearGradient4254"
       gradientUnits="userSpaceOnUse"
       gradientTransform="matrix(2.5646484,0,0,1.8284958,3.0046676,26.372688)" /&gt;
    &lt;radialGradient
       cx="15.571491"
       cy="2.958519"
       r="20.935818"
       fx="15.571491"
       fy="2.958519"
       id="radialGradient19000"
       xlink:href="#linearGradient4244"
       gradientUnits="userSpaceOnUse"
       gradientTransform="matrix(3.1758355,1.2018439,-1.7549782,1.798161,-0.646306,22.849447)" /&gt;
    &lt;linearGradient
       x1="7.6046205"
       y1="28.481176"
       x2="36.183067"
       y2="40.943935"
       id="linearGradient19003"
       xlink:href="#linearGradient4228"
       gradientUnits="userSpaceOnUse"
       gradientTransform="matrix(2.5551094,0,0,2.0216842,3.2352686,19.024775)" /&gt;
  &lt;/defs&gt;
  &lt;g
     id="layer1"
     style="display:inline" /&gt;
  &lt;g
     id="layer2"
     style="display:inline"&gt;
    &lt;path
       d="m 11.599653,73.603805 1.953642,-1.39944 96.096875,0.126356 8.84682,0.641477 0,21.103415 c 0,2.275545 -1.55099,3.726634 -4.0674,3.726634 l -98.583754,0 c -2.551187,0 -4.246183,-1.095855 -4.246183,-3.284558 l 0,-20.913884 z"
       id="path4170"
       style="fill:url(#linearGradient19003);fill-opacity:1;fill-rule:evenodd;stroke:none" /&gt;
    &lt;path
       d="m 31.848533,40.136783 c -1.607726,0 -2.652747,0.5431 -3.295834,1.579165 -2e-6,0 -16.639968,32.01098 -16.639968,32.01098 0,0 -0.643091,1.256888 -0.643091,3.333784 0,0 0,18.060858 0,18.060858 0,2.026216 1.692063,3.04135 4.260475,3.041347 l 99.196705,0 c 2.53341,0 4.0997,-1.344146 4.0997,-3.450759 l 0,-18.060858 c 0,0 0.27258,-1.441922 -0.24116,-2.456472 L 101.30231,42.008387 c -0.47467,-0.958083 -1.638354,-1.849321 -2.893911,-1.871604 l -66.559866,0 z"
       id="path4196"
       style="fill:none;stroke:#535353;stroke-width:4.38836098;stroke-linecap:round;stroke-linejoin:round;stroke-miterlimit:4;stroke-opacity:1;stroke-dasharray:none" /&gt;
    &lt;g
       transform="matrix(0.06267019,0,0,0.05331895,119.9796,90.615598)"
       id="g6707"&gt;
      &lt;rect
         width="1339.6335"
         height="478.35718"
         x="-1559.2523"
         y="-150.69685"
         id="rect6709"
         style="opacity:0.40206185;fill:url(#linearGradient6715);fill-opacity:1;fill-rule:nonzero;stroke:none;stroke-width:1;marker:none;visibility:visible;display:inline;overflow:visible" /&gt;
      &lt;path
         d="m -219.61876,-150.68038 c 0,0 0,478.33079 0,478.33079 142.874166,0.90045 345.40022,-107.16966 345.40014,-239.196175 0,-132.026537 -159.436816,-239.134595 -345.40014,-239.134615 z"
         id="path6711"
         style="opacity:0.40206185;fill:url(#radialGradient6717);fill-opacity:1;fill-rule:nonzero;stroke:none;stroke-width:1;marker:none;visibility:visible;display:inline;overflow:visible" /&gt;
      &lt;path
         d="m -1559.2523,-150.68038 c 0,0 0,478.33079 0,478.33079 -142.8742,0.90045 -345.4002,-107.16966 -345.4002,-239.196175 0,-132.026537 159.4368,-239.134595 345.4002,-239.134615 z"
         id="path6713"
         style="opacity:0.40206185;fill:url(#radialGradient6719);fill-opacity:1;fill-rule:nonzero;stroke:none;stroke-width:1;marker:none;visibility:visible;display:inline;overflow:visible" /&gt;
    &lt;/g&gt;
    &lt;path
       d="m 13.929746,70.190357 c -1.763629,2.251306 -0.0015,3.678965 2.557261,3.678965 0,0 96.294153,0 96.294153,0 2.76301,-0.03661 4.55603,-1.555781 3.52725,-3.294598 L 99.73029,44.113647 c -0.4556,-0.787045 -1.616653,-1.519181 -2.8218,-1.537485 l -63.843371,0 c -1.543177,0 -2.557263,0.466738 -3.174531,1.317844 0,0 -15.960842,26.296351 -15.960842,26.296351 z"
       id="path3093"
       style="fill:url(#radialGradient19000);fill-opacity:1;fill-rule:evenodd;stroke:none" /&gt;
    &lt;path
       d="m 8.5736699,25.593554 a 1.3700195,1.016466 0 1 1 -2.7400389,0 1.3700195,1.016466 0 1 1 2.7400389,0 z"
       transform="matrix(2.5551094,0,0,2.5551094,7.4611107,-1.3091229)"
       id="path4224"
       style="fill:#ffffff;fill-opacity:0.45762706;fill-rule:evenodd;stroke:none;stroke-width:2;marker:none;visibility:visible;display:inline;overflow:visible" /&gt;
    &lt;path
       d="m 8.5736699,25.593554 a 1.3700195,1.016466 0 1 1 -2.7400389,0 1.3700195,1.016466 0 1 1 2.7400389,0 z"
       transform="matrix(2.5551094,0,0,2.5551094,86.024797,-1.5349638)"
       id="path4226"
       style="fill:#ffffff;fill-opacity:0.45762706;fill-rule:evenodd;stroke:none;stroke-width:2;marker:none;visibility:visible;display:inline;overflow:visible" /&gt;
    &lt;path
       d="m 32.863624,41.760801 c -1.543128,0 -2.54616,0.510806 -3.163406,1.485264 -3e-6,0 -16.452257,30.336065 -16.452257,30.336065 0,0 -0.617252,1.182149 -0.617252,3.135546 0,0 0,16.986901 0,16.986901 0,2.477136 1.138848,2.974778 4.089291,2.974778 l 96.65365,0 c 3.39336,0 3.93499,-0.578531 3.93499,-3.359846 l 0,-16.986901 c 0,0 0.26161,-1.356179 -0.23147,-2.310402 L 100.16795,43.292552 c -0.455592,-0.901113 -1.412229,-1.510794 -2.61734,-1.531751 l -64.686986,0 z"
       id="path4252"
       style="fill:none;stroke:url(#linearGradient18985);stroke-width:2.16551399;stroke-linecap:round;stroke-linejoin:round;stroke-miterlimit:4;stroke-opacity:1;stroke-dasharray:none" /&gt;
    &lt;path
       d="m 106.7172,76.544153 0,12.829038"
       id="path4282"
       style="fill:none;stroke:#ffffff;stroke-width:2.55511069px;stroke-linecap:square;stroke-linejoin:miter;stroke-opacity:0.42372885" /&gt;
    &lt;path
       d="m 101.60698,76.696889 0,12.829039"
       id="path4284"
       style="fill:none;stroke:#ffffff;stroke-width:2.55511069px;stroke-linecap:square;stroke-linejoin:miter;stroke-opacity:0.42372885" /&gt;
    &lt;path
       d="m 96.496762,76.696889 0,12.829039"
       id="path4286"
       style="fill:none;stroke:#ffffff;stroke-width:2.55511069px;stroke-linecap:square;stroke-linejoin:miter;stroke-opacity:0.42372885" /&gt;
    &lt;path
       d="m 91.386543,76.696889 0,12.829039"
       id="path4288"
       style="fill:none;stroke:#ffffff;stroke-width:2.55511069px;stroke-linecap:square;stroke-linejoin:miter;stroke-opacity:0.42372885" /&gt;
    &lt;path
       d="m 86.276324,76.696889 0,12.829039"
       id="path4290"
       style="fill:none;stroke:#ffffff;stroke-width:2.55511069px;stroke-linecap:square;stroke-linejoin:miter;stroke-opacity:0.42372885" /&gt;
    &lt;path
       d="m 81.166105,76.696889 0,12.829039"
       id="path4292"
       style="fill:none;stroke:#ffffff;stroke-width:2.55511069px;stroke-linecap:square;stroke-linejoin:miter;stroke-opacity:0.42372885" /&gt;
    &lt;path
       d="m 104.16209,76.67165 0,12.829038"
       id="path4294"
       style="opacity:0.09714284;fill:none;stroke:#000000;stroke-width:2.55511069px;stroke-linecap:square;stroke-linejoin:miter;stroke-opacity:1" /&gt;
    &lt;path
       d="m 99.051871,76.824387 0,12.829038"
       id="path4296"
       style="opacity:0.09714284;fill:none;stroke:#000000;stroke-width:2.55511069px;stroke-linecap:square;stroke-linejoin:miter;stroke-opacity:1" /&gt;
    &lt;path
       d="m 93.941652,76.824387 0,12.829038"
       id="path4298"
       style="opacity:0.09714284;fill:none;stroke:#000000;stroke-width:2.55511069px;stroke-linecap:square;stroke-linejoin:miter;stroke-opacity:1" /&gt;
    &lt;path
       d="m 88.831434,76.824387 0,12.829038"
       id="path4300"
       style="opacity:0.09714284;fill:none;stroke:#000000;stroke-width:2.55511069px;stroke-linecap:square;stroke-linejoin:miter;stroke-opacity:1" /&gt;
    &lt;path
       d="m 83.721215,76.824387 0,12.829038"
       id="path4302"
       style="opacity:0.09714284;fill:none;stroke:#000000;stroke-width:2.55511069px;stroke-linecap:square;stroke-linejoin:miter;stroke-opacity:1" /&gt;
    &lt;g
       transform="translate(25.215111,8.0673369)"
       id="g21981"&gt;
      &lt;rect
         width="5.0423279"
         height="3.5414283"
         x="-4.6224236"
         y="69.945557"
         id="rect19010"
         style="fill:#2e3436;fill-opacity:1;fill-rule:nonzero;stroke:#363333;stroke-width:3.76234961;stroke-miterlimit:4;stroke-opacity:1;stroke-dasharray:none" /&gt;
      &lt;rect
         width="5.0423279"
         height="3.5414283"
         x="-4.6224236"
         y="69.945557"
         id="rect19981"
         style="fill:#2e3436;fill-opacity:1;fill-rule:nonzero;stroke:#363333;stroke-width:3.76234961;stroke-miterlimit:4;stroke-opacity:1;stroke-dasharray:none" /&gt;
      &lt;rect
         width="7.1828671"
         height="5.6819677"
         x="-5.6926928"
         y="68.87529"
         id="rect20028"
         style="fill:#2e3436;fill-opacity:1;fill-rule:nonzero;stroke:#ffffff;stroke-width:0.42145053;stroke-miterlimit:4;stroke-opacity:1;stroke-dasharray:none" /&gt;
      &lt;rect
         width="5.0423279"
         height="3.5414283"
         x="-4.6224232"
         y="78.200493"
         id="rect21975"
         style="fill:#2e3436;fill-opacity:1;fill-rule:nonzero;stroke:#363333;stroke-width:3.76234961;stroke-miterlimit:4;stroke-opacity:1;stroke-dasharray:none;display:inline" /&gt;
      &lt;rect
         width="5.0423279"
         height="3.5414283"
         x="-4.6224232"
         y="78.200493"
         id="rect21977"
         style="fill:#2e3436;fill-opacity:1;fill-rule:nonzero;stroke:#363333;stroke-width:3.76234961;stroke-miterlimit:4;stroke-opacity:1;stroke-dasharray:none;display:inline" /&gt;
      &lt;rect
         width="7.1828671"
         height="5.6819677"
         x="-5.6926923"
         y="77.130234"
         id="rect21979"
         style="fill:#2e3436;fill-opacity:1;fill-rule:nonzero;stroke:#ffffff;stroke-width:0.42145053;stroke-miterlimit:4;stroke-opacity:1;stroke-dasharray:none;display:inline" /&gt;
    &lt;/g&gt;
    &lt;g
       transform="translate(36.021588,8.0673369)"
       id="g21989"
       style="display:inline"&gt;
      &lt;rect
         width="5.0423279"
         height="3.5414283"
         x="-4.6224236"
         y="69.945557"
         id="rect21991"
         style="fill:#2e3436;fill-opacity:1;fill-rule:nonzero;stroke:#363333;stroke-width:3.76234961;stroke-miterlimit:4;stroke-opacity:1;stroke-dasharray:none" /&gt;
      &lt;rect
         width="5.0423279"
         height="3.5414283"
         x="-4.6224236"
         y="69.945557"
         id="rect21993"
         style="fill:#2e3436;fill-opacity:1;fill-rule:nonzero;stroke:#363333;stroke-width:3.76234961;stroke-miterlimit:4;stroke-opacity:1;stroke-dasharray:none" /&gt;
      &lt;rect
         width="7.1828671"
         height="5.6819677"
         x="-5.6926928"
         y="68.87529"
         id="rect21995"
         style="fill:#2e3436;fill-opacity:1;fill-rule:nonzero;stroke:#ffffff;stroke-width:0.42145053;stroke-miterlimit:4;stroke-opacity:1;stroke-dasharray:none" /&gt;
      &lt;rect
         width="5.0423279"
         height="3.5414283"
         x="-4.6224232"
         y="78.200493"
         id="rect21997"
         style="fill:#2e3436;fill-opacity:1;fill-rule:nonzero;stroke:#363333;stroke-width:3.76234961;stroke-miterlimit:4;stroke-opacity:1;stroke-dasharray:none;display:inline" /&gt;
      &lt;rect
         width="5.0423279"
         height="3.5414283"
         x="-4.6224232"
         y="78.200493"
         id="rect21999"
         style="fill:#2e3436;fill-opacity:1;fill-rule:nonzero;stroke:#363333;stroke-width:3.76234961;stroke-miterlimit:4;stroke-opacity:1;stroke-dasharray:none;display:inline" /&gt;
      &lt;rect
         width="7.1828671"
         height="5.6819677"
         x="-5.6926923"
         y="77.130234"
         id="rect22001"
         style="fill:#2e3436;fill-opacity:1;fill-rule:nonzero;stroke:#ffffff;stroke-width:0.42145053;stroke-miterlimit:4;stroke-opacity:1;stroke-dasharray:none;display:inline" /&gt;
    &lt;/g&gt;
    &lt;g
       transform="translate(46.828063,8.0673369)"
       id="g22003"
       style="display:inline"&gt;
      &lt;rect
         width="5.0423279"
         height="3.5414283"
         x="-4.6224236"
         y="69.945557"
         id="rect22005"
         style="fill:#2e3436;fill-opacity:1;fill-rule:nonzero;stroke:#363333;stroke-width:3.76234961;stroke-miterlimit:4;stroke-opacity:1;stroke-dasharray:none" /&gt;
      &lt;rect
         width="5.0423279"
         height="3.5414283"
         x="-4.6224236"
         y="69.945557"
         id="rect22007"
         style="fill:#2e3436;fill-opacity:1;fill-rule:nonzero;stroke:#363333;stroke-width:3.76234961;stroke-miterlimit:4;stroke-opacity:1;stroke-dasharray:none" /&gt;
      &lt;rect
         width="7.1828671"
         height="5.6819677"
         x="-5.6926928"
         y="68.87529"
         id="rect22009"
         style="fill:#2e3436;fill-opacity:1;fill-rule:nonzero;stroke:#ffffff;stroke-width:0.42145053;stroke-miterlimit:4;stroke-opacity:1;stroke-dasharray:none" /&gt;
      &lt;rect
         width="5.0423279"
         height="3.5414283"
         x="-4.6224232"
         y="78.200493"
         id="rect22011"
         style="fill:#2e3436;fill-opacity:1;fill-rule:nonzero;stroke:#363333;stroke-width:3.76234961;stroke-miterlimit:4;stroke-opacity:1;stroke-dasharray:none;display:inline" /&gt;
      &lt;rect
         width="5.0423279"
         height="3.5414283"
         x="-4.6224232"
         y="78.200493"
         id="rect22013"
         style="fill:#2e3436;fill-opacity:1;fill-rule:nonzero;stroke:#363333;stroke-width:3.76234961;stroke-miterlimit:4;stroke-opacity:1;stroke-dasharray:none;display:inline" /&gt;
      &lt;rect
         width="7.1828671"
         height="5.6819677"
         x="-5.6926923"
         y="77.130234"
         id="rect22015"
         style="fill:#2e3436;fill-opacity:1;fill-rule:nonzero;stroke:#ffffff;stroke-width:0.42145053;stroke-miterlimit:4;stroke-opacity:1;stroke-dasharray:none;display:inline" /&gt;
    &lt;/g&gt;
    &lt;g
       transform="translate(57.33436,8.0673369)"
       id="g22017"
       style="display:inline"&gt;
      &lt;rect
         width="5.0423279"
         height="3.5414283"
         x="-4.6224236"
         y="69.945557"
         id="rect22019"
         style="fill:#2e3436;fill-opacity:1;fill-rule:nonzero;stroke:#363333;stroke-width:3.76234961;stroke-miterlimit:4;stroke-opacity:1;stroke-dasharray:none" /&gt;
      &lt;rect
         width="5.0423279"
         height="3.5414283"
         x="-4.6224236"
         y="69.945557"
         id="rect22021"
         style="fill:#2e3436;fill-opacity:1;fill-rule:nonzero;stroke:#363333;stroke-width:3.76234961;stroke-miterlimit:4;stroke-opacity:1;stroke-dasharray:none" /&gt;
      &lt;rect
         width="7.1828671"
         height="5.6819677"
         x="-5.6926928"
         y="68.87529"
         id="rect22023"
         style="fill:#2e3436;fill-opacity:1;fill-rule:nonzero;stroke:#ffffff;stroke-width:0.42145053;stroke-miterlimit:4;stroke-opacity:1;stroke-dasharray:none" /&gt;
      &lt;rect
         width="5.0423279"
         height="3.5414283"
         x="-4.6224232"
         y="78.200493"
         id="rect22025"
         style="fill:#2e3436;fill-opacity:1;fill-rule:nonzero;stroke:#363333;stroke-width:3.76234961;stroke-miterlimit:4;stroke-opacity:1;stroke-dasharray:none;display:inline" /&gt;
      &lt;rect
         width="5.0423279"
         height="3.5414283"
         x="-4.6224232"
         y="78.200493"
         id="rect22027"
         style="fill:#2e3436;fill-opacity:1;fill-rule:nonzero;stroke:#363333;stroke-width:3.76234961;stroke-miterlimit:4;stroke-opacity:1;stroke-dasharray:none;display:inline" /&gt;
      &lt;rect
         width="7.1828671"
         height="5.6819677"
         x="-5.6926923"
         y="77.130234"
         id="rect22029"
         style="fill:#2e3436;fill-opacity:1;fill-rule:nonzero;stroke:#ffffff;stroke-width:0.42145053;stroke-miterlimit:4;stroke-opacity:1;stroke-dasharray:none;display:inline" /&gt;
    &lt;/g&gt;
    &lt;g
       transform="translate(67.840656,8.0673369)"
       id="g22031"
       style="display:inline"&gt;
      &lt;rect
         width="5.0423279"
         height="3.5414283"
         x="-4.6224236"
         y="69.945557"
         id="rect22033"
         style="fill:#2e3436;fill-opacity:1;fill-rule:nonzero;stroke:#363333;stroke-width:3.76234961;stroke-miterlimit:4;stroke-opacity:1;stroke-dasharray:none" /&gt;
      &lt;rect
         width="5.0423279"
         height="3.5414283"
         x="-4.6224236"
         y="69.945557"
         id="rect22035"
         style="fill:#2e3436;fill-opacity:1;fill-rule:nonzero;stroke:#363333;stroke-width:3.76234961;stroke-miterlimit:4;stroke-opacity:1;stroke-dasharray:none" /&gt;
      &lt;rect
         width="7.1828671"
         height="5.6819677"
         x="-5.6926928"
         y="68.87529"
         id="rect22037"
         style="fill:#2e3436;fill-opacity:1;fill-rule:nonzero;stroke:#ffffff;stroke-width:0.42145053;stroke-miterlimit:4;stroke-opacity:1;stroke-dasharray:none" /&gt;
      &lt;rect
         width="5.0423279"
         height="3.5414283"
         x="-4.6224232"
         y="78.200493"
         id="rect22039"
         style="fill:#2e3436;fill-opacity:1;fill-rule:nonzero;stroke:#363333;stroke-width:3.76234961;stroke-miterlimit:4;stroke-opacity:1;stroke-dasharray:none;display:inline" /&gt;
      &lt;rect
         width="5.0423279"
         height="3.5414283"
         x="-4.6224232"
         y="78.200493"
         id="rect22041"
         style="fill:#2e3436;fill-opacity:1;fill-rule:nonzero;stroke:#363333;stroke-width:3.76234961;stroke-miterlimit:4;stroke-opacity:1;stroke-dasharray:none;display:inline" /&gt;
      &lt;rect
         width="7.1828671"
         height="5.6819677"
         x="-5.6926923"
         y="77.130234"
         id="rect22043"
         style="fill:#2e3436;fill-opacity:1;fill-rule:nonzero;stroke:#ffffff;stroke-width:0.42145053;stroke-miterlimit:4;stroke-opacity:1;stroke-dasharray:none;display:inline" /&gt;
    &lt;/g&gt;
    &lt;path
       d="m -25.215112,86.725266 a 2.2513492,2.2513492 0 1 1 -4.502698,0 2.2513492,2.2513492 0 1 1 4.502698,0 z"
       transform="translate(102.88665,-8.405037)"
       id="path22045"
       style="fill:#4e9a06;fill-opacity:1;fill-rule:nonzero;stroke:#ffffff;stroke-width:0.40000001;stroke-miterlimit:4;stroke-opacity:1;stroke-dasharray:none" /&gt;
    &lt;path
       d="m -25.215112,86.725266 a 2.2513492,2.2513492 0 1 1 -4.502698,0 2.2513492,2.2513492 0 1 1 4.502698,0 z"
       transform="translate(102.88665,-3.4520692)"
       id="path22049"
       style="fill:#a40000;fill-opacity:1;fill-rule:nonzero;stroke:#ffffff;stroke-width:0.40000001;stroke-miterlimit:4;stroke-opacity:1;stroke-dasharray:none;display:inline" /&gt;
    &lt;path
       d="m -25.215112,86.725266 a 2.2513492,2.2513492 0 1 1 -4.502698,0 2.2513492,2.2513492 0 1 1 4.502698,0 z"
       transform="translate(102.88665,1.6509881)"
       id="path22051"
       style="fill:#4e9a06;fill-opacity:1;fill-rule:nonzero;stroke:#ffffff;stroke-width:0.40000001;stroke-miterlimit:4;stroke-opacity:1;stroke-dasharray:none;display:inline" /&gt;
  &lt;/g&gt;
&lt;/svg&gt;
</y:Resource>
    </y:Resources>
  </data>
</graphml>
